heat_test - johan-final-comparison-all
…
Binding final comparison's

We are flagging any temperature difference greater than or equal to 15 degrees Fahrenheit and 0 degrees Fahrenheit as notable.

final <- rbind(ali, johan, karina, pearson)

unit_flagged <- final |> 
  arrange(temp_diff |> desc()) |> 
  filter(temp_diff >= 15 | temp_diff == 0)

unit_flagged

# A tibble: 390 × 6
   date       unit      unit_temp station_code station_temp temp_diff
   <date>     <chr>         <dbl> <chr>               <dbl>     <dbl>
 1 2023-09-02 Sanchez       887   KELP                   98     789  
 2 2023-08-17 Hilltop        73.9 KGOP                  109      35.1
 3 2023-04-24 Formby         77   KPVW                   46      31  
 4 2023-04-23 Formby         77.2 KPVW                   47      30.2
 5 2023-04-23 Wheeler        76.6 KPVW                   47      29.6
 6 2023-04-23 Wallace        75.6 KSNK                   46      29.6
 7 2023-04-23 Middleton      77.1 KABI                   48      29.1
 8 2023-04-28 Roach          76.6 KCDS                   48      28.6
 9 2023-04-05 Dalhart        77.5 KDHT                   49      28.5
10 2023-04-06 Hobby          80.4 KPWG                   52      28.4
# ℹ 380 more rows
…
unit_info <- units |> clean_names()

unit_info

# A tibble: 101 × 22
   unit_name data_fellow type  region established capacity ac    prototype x9   
   <chr>     <chr>       <chr> <chr>        <dbl>    <dbl> <chr> <chr>     <lgl>
 1 Middleton Johan       Pris… VI            1994     2128 Part… 2000 BED… NA   
 2 Robertson Johan       Pris… VI            1992     2978 Part… 2250 BED… NA   
 3 Clements  Johan       Pris… V             1990     2932 Part… 2250 BED… NA   
 4 Travis C… Johan       Stat… VI            1997     1161 All   MISCELLA… NA   
 5 Gist      Johan       Stat… III           1994     2276 Part… 2144 BED… NA   
 6 LeBlanc   Johan       Pre-… III           1995     1224 All   1000 BED… NA   
 7 Stiles    Johan       Pris… III           1993     2887 Part… 2250 BED… NA   
 8 Garza Ea… Johan       Pris… IV            1994      912 Part… 2000 BED… NA   
 9 Garza We… Johan       Pris… IV            1994     2278 Part… 2000 BED… NA   
10 Mcconnell Johan       Pris… IV            1992     2956 Part… 2250 BED… NA   
# ℹ 91 more rows
# ℹ 13 more variables: x10 <lgl>, x11 <lgl>, x12 <lgl>, x13 <lgl>, x14 <lgl>,
#   x15 <lgl>, x16 <lgl>, x17 <lgl>, x18 <lgl>, x19 <lgl>, x20 <lgl>,
#   x21 <lgl>, x22 <dbl>

Cleaning unit_info

I’m changing the column names to better fit our final comparison list, and selecting only the columns we need.

 unit_info_c <- unit_info |> 
  rename(unit = unit_name) |> 
  select(unit, type, region, established)

unit_info_c

# A tibble: 101 × 4
   unit          type        region established
   <chr>         <chr>       <chr>        <dbl>
 1 Middleton     Prison      VI            1994
 2 Robertson     Prison      VI            1992
 3 Clements      Prison      V             1990
 4 Travis County State Jail  VI            1997
 5 Gist          State Jail  III           1994
 6 LeBlanc       Pre-Release III           1995
 7 Stiles        Prison      III           1993
 8 Garza East    Prison      IV            1994
 9 Garza West    Prison      IV            1994
10 Mcconnell     Prison      IV            1992
# ℹ 91 more rows

Joining

Now, let’s join our final comparison data with our new information by unit.

unit_info_join <- unit_flagged |> 
  left_join(unit_info_c, by = "unit") |> 
  select(date, type, region, established, unit, unit_temp, station_code, station_temp, temp_diff)

unit_info_join

# A tibble: 390 × 9
   date       type  region established unit  unit_temp station_code station_temp
   <date>     <chr> <chr>        <dbl> <chr>     <dbl> <chr>               <dbl>
 1 2023-09-02 Stat… IV            1996 Sanc…     887   KELP                   98
 2 2023-08-17 Pris… VI            1981 Hill…      73.9 KGOP                  109
 3 2023-04-24 Stat… V             1995 Form…      77   KPVW                   46
 4 2023-04-23 Stat… V             1995 Form…      77.2 KPVW                   47
 5 2023-04-23 Stat… V             1995 Whee…      76.6 KPVW                   47
 6 2023-04-23 Pris… V             1994 Wall…      75.6 KSNK                   46
 7 2023-04-23 Pris… VI            1994 Midd…      77.1 KABI                   48
 8 2023-04-28 Pris… V             1991 Roach      76.6 KCDS                   48
 9 2023-04-05 Pris… V             1995 Dalh…      77.5 KDHT                   49
10 2023-04-06 Pris… VI            1989 Hobby      80.4 KPWG                   52
# ℹ 380 more rows
# ℹ 1 more variable: temp_diff <dbl>
…
Grouping by age of prison

Now, we want to group by the age of the prison to determine if the building’s age is associated with having more flagged days.

age_count <- unit_info_join |> 
  select(date, established, unit, station_code, station_temp, temp_diff) |> 
  group_by(established) |> 
  summarise(number_of_days_over_15 = n()) |> 
  arrange(desc(number_of_days_over_15))

age_count

# A tibble: 24 × 2
   established number_of_days_over_15
         <dbl>                  <int>
 1        1995                     92
 2        1994                     63
 3        1990                     30
 4        1996                     24
 5        1989                     21
 6        1992                     19
 7        1907                     17
 8        1965                     16
 9        1964                     15
10        1991                     15
# ℹ 14 more rows

Grouping by unit

Now, we want to group by unit to see which units have more flagged days.

unit_count <- unit_info_join |> 
  select(date, region, unit, station_code, station_temp, temp_diff) |> 
  group_by(unit) |> 
  summarise(number_of_days_over_15 = n()) |> 
  arrange(desc(number_of_days_over_15))

unit_count

# A tibble: 54 × 2
   unit     number_of_days_over_15
   <chr>                     <int>
 1 Lynaugh                      31
 2 Clements                     21
 3 Sanchez                      20
 4 Wheeler                      19
 5 Goree                        17
 6 Murray                       17
 7 Daniel                       16
 8 Byrd                         15
 9 Roach                        15
10 Dalhart                      14
# ℹ 44 more rows
…
