heat_test – karina-station-cleaning
…
ℹ Use `spec()` to retrieve the full column specification for this data.
ℹ Specify the column types or set `show_col_types = FALSE` to quiet this message.

apr_sep <- all_stations |> filter(month(date_date) >= 4 & month(date_date) <= 9)

apr_sep

# A tibble: 2,170 × 5
# Groups:   date_date [533]
       station date                name        hourly_dry_bulb_temp…¹ date_date 
         <dbl> <dttm>              <chr>                        <dbl> <date>    
 1 72026153976 2013-04-01 14:55:00 BRIDGEPORT…                     77 2013-04-01
 2 72026153976 2013-04-02 14:55:00 BRIDGEPORT…                     59 2013-04-02
 3 72026153976 2013-04-03 14:15:00 BRIDGEPORT…                     46 2013-04-03
 4 72026153976 2013-04-04 14:55:00 BRIDGEPORT…                     46 2013-04-04
 5 72026153976 2013-04-05 14:55:00 BRIDGEPORT…                     66 2013-04-05
 6 72026153976 2013-04-06 14:55:00 BRIDGEPORT…                     77 2013-04-06
 7 72026153976 2013-04-07 14:55:00 BRIDGEPORT…                     72 2013-04-07
 8 72026153976 2013-04-08 14:55:00 BRIDGEPORT…                     73 2013-04-08
 9 72026153976 2013-04-09 14:35:00 BRIDGEPORT…                     73 2013-04-09
10 72026153976 2013-04-10 14:55:00 BRIDGEPORT…                     43 2013-04-10
# ℹ 2,160 more rows
# ℹ abbreviated name: ¹​hourly_dry_bulb_temperature

jasper <- apr_sep |> filter(name == "JASPER CO BELL FIELD AIRPORT, TX US")

jasper

# A tibble: 183 × 5
# Groups:   date_date [183]
       station date                name        hourly_dry_bulb_temp…¹ date_date 
         <dbl> <dttm>              <chr>                        <dbl> <date>    
 1 72029653945 2023-04-01 14:55:00 JASPER CO …                     84 2023-04-01
 2 72029653945 2023-04-02 14:55:00 JASPER CO …                     81 2023-04-02
 3 72029653945 2023-04-03 14:55:00 JASPER CO …                     84 2023-04-03
 4 72029653945 2023-04-04 14:55:00 JASPER CO …                     81 2023-04-04
 5 72029653945 2023-04-05 14:55:00 JASPER CO …                     64 2023-04-05
 6 72029653945 2023-04-06 14:55:00 JASPER CO …                     59 2023-04-06
 7 72029653945 2023-04-07 14:55:00 JASPER CO …                     54 2023-04-07
 8 72029653945 2023-04-08 14:55:00 JASPER CO …                     72 2023-04-08
 9 72029653945 2023-04-09 14:55:00 JASPER CO …                     66 2023-04-09
10 72029653945 2023-04-10 14:55:00 JASPER CO …                     68 2023-04-10
# ℹ 173 more rows
# ℹ abbreviated name: ¹​hourly_dry_bulb_temperature
…
