heat_test – karina-comparison
…
library(lubridate)

all_stations <- read_rds("data-processed/02-all-stations.rds")
all_units <- read_rds("data-processed/karina-heat-all.rds")

all_stations 

# A tibble: 2,170 × 5
# Groups:   date_date [533]
       station date                name        hourly_dry_bulb_temp…¹ date_date 
         <dbl> <dttm>              <chr>                        <dbl> <date>    
 1 72026153976 2013-04-01 14:55:00 BRIDGEPORT…                     77 2013-04-01
 2 72026153976 2013-04-02 14:55:00 BRIDGEPORT…                     59 2013-04-02
 3 72026153976 2013-04-03 14:15:00 BRIDGEPORT…                     46 2013-04-03
 4 72026153976 2013-04-04 14:55:00 BRIDGEPORT…                     46 2013-04-04
 5 72026153976 2013-04-05 14:55:00 BRIDGEPORT…                     66 2013-04-05
 6 72026153976 2013-04-06 14:55:00 BRIDGEPORT…                     77 2013-04-06
 7 72026153976 2013-04-07 14:55:00 BRIDGEPORT…                     72 2013-04-07
 8 72026153976 2013-04-08 14:55:00 BRIDGEPORT…                     73 2013-04-08
 9 72026153976 2013-04-09 14:35:00 BRIDGEPORT…                     73 2013-04-09
10 72026153976 2013-04-10 14:55:00 BRIDGEPORT…                     43 2013-04-10
# ℹ 2,160 more rows
# ℹ abbreviated name: ¹​hourly_dry_bulb_temperature

all_units <- all_units |> rename(unit_temp = temperature )

all_units

# A tibble: 12,323 × 3
   unit   unit_temp date      
   <chr>      <dbl> <date>    
 1 Allred      97.7 2023-08-01
 2 Allred      99.7 2023-08-02
 3 Allred      95.6 2023-08-03
 4 Allred      97.6 2023-08-04
 5 Allred     100.  2023-08-05
 6 Allred      97.1 2023-08-06
 7 Allred      93.8 2023-08-07
 8 Allred      92.3 2023-08-08
 9 Allred      95.8 2023-08-09
10 Allred      93   2023-08-10
# ℹ 12,313 more rows
…
ellis_merge <- left_join(Ellis, KUTS, by = "date") |> select(date, unit, unit_temp, station_code, station_temp)

ellis_merge

# A tibble: 183 × 5
   date       unit  unit_temp station_code station_temp
   <date>     <chr>     <dbl> <chr>               <dbl>
 1 2023-08-01 Ellis      98.3 KUTS                  105
 2 2023-08-02 Ellis      97.4 KUTS                  105
 3 2023-08-03 Ellis      93   KUTS                  102
 4 2023-08-04 Ellis      92.8 KUTS                  102
 5 2023-08-05 Ellis      91.6 KUTS                  103
 6 2023-08-06 Ellis      95.4 KUTS                  102
 7 2023-08-07 Ellis      94.4 KUTS                  102
 8 2023-08-08 Ellis      91   KUTS                  102
 9 2023-08-09 Ellis      90.8 KUTS                  104
10 2023-08-10 Ellis      95.5 KUTS                  105
# ℹ 173 more rows

estelle_merge <- left_join(Estelle, KUTS, by = "date") |> select(date, unit, unit_temp, station_code, station_temp)

estelle_merge

# A tibble: 183 × 5
   date       unit    unit_temp station_code station_temp
   <date>     <chr>       <dbl> <chr>               <dbl>
 1 2023-08-01 Estelle      92.6 KUTS                  105
 2 2023-08-02 Estelle      94.8 KUTS                  105
 3 2023-08-03 Estelle      94.6 KUTS                  102
 4 2023-08-04 Estelle      92   KUTS                  102
 5 2023-08-05 Estelle      94.5 KUTS                  103
 6 2023-08-06 Estelle      91.6 KUTS                  102
 7 2023-08-07 Estelle      92.7 KUTS                  102
 8 2023-08-08 Estelle      92   KUTS                  102
 9 2023-08-09 Estelle      94.3 KUTS                  104
10 2023-08-10 Estelle      95.2 KUTS                  105
# ℹ 173 more rows

goree_merge <- left_join(Goree, KUTS, by = "date") |> select(date, unit, unit_temp, station_code, station_temp)

goree_merge

# A tibble: 183 × 5
   date       unit  unit_temp station_code station_temp
   <date>     <chr>     <dbl> <chr>               <dbl>
 1 2023-08-01 Goree      89.5 KUTS                  105
 2 2023-08-02 Goree      92.3 KUTS                  105
 3 2023-08-03 Goree      89.3 KUTS                  102
 4 2023-08-04 Goree      90.2 KUTS                  102
 5 2023-08-05 Goree      90   KUTS                  103
 6 2023-08-06 Goree      92.4 KUTS                  102
 7 2023-08-07 Goree      91.8 KUTS                  102
 8 2023-08-08 Goree      92   KUTS                  102
 9 2023-08-09 Goree      91.6 KUTS                  104
10 2023-08-10 Goree      92   KUTS                  105
# ℹ 173 more rows

holliday_merge <- left_join(Holliday, KUTS, by = "date") |> select(date, unit, unit_temp, station_code, station_temp)

holliday_merge

# A tibble: 183 × 5
   date       unit     unit_temp station_code station_temp
   <date>     <chr>        <dbl> <chr>               <dbl>
 1 2023-08-01 Holliday      96.1 KUTS                  105
 2 2023-08-02 Holliday      97.1 KUTS                  105
 3 2023-08-03 Holliday      94.6 KUTS                  102
 4 2023-08-04 Holliday      92.9 KUTS                  102
 5 2023-08-05 Holliday      97.2 KUTS                  103
 6 2023-08-06 Holliday      89.3 KUTS                  102
 7 2023-08-07 Holliday      95.6 KUTS                  102
 8 2023-08-08 Holliday      94.4 KUTS                  102
 9 2023-08-09 Holliday      96.9 KUTS                  104
10 2023-08-10 Holliday      97.4 KUTS                  105
# ℹ 173 more rows

huntsville_merge <- left_join(Huntsville, KUTS, by = "date") |> select(date, unit, unit_temp, station_code, station_temp)

huntsville_merge

# A tibble: 183 × 5
   date       unit       unit_temp station_code station_temp
   <date>     <chr>          <dbl> <chr>               <dbl>
 1 2023-08-01 Huntsville      93.9 KUTS                  105
 2 2023-08-02 Huntsville      91.8 KUTS                  105
 3 2023-08-03 Huntsville      93.8 KUTS                  102
 4 2023-08-04 Huntsville      94.4 KUTS                  102
 5 2023-08-05 Huntsville      90.8 KUTS                  103
 6 2023-08-06 Huntsville      88.1 KUTS                  102
 7 2023-08-07 Huntsville      90   KUTS                  102
 8 2023-08-08 Huntsville      92.1 KUTS                  102
 9 2023-08-09 Huntsville      94.3 KUTS                  104
10 2023-08-10 Huntsville      94.2 KUTS                  105
# ℹ 173 more rows

wynne_merge <- left_join(Wynne, KUTS, by = "date") |> select(date, unit, unit_temp, station_code, station_temp)

wynne_merge

# A tibble: 183 × 5
   date       unit  unit_temp station_code station_temp
   <date>     <chr>     <dbl> <chr>               <dbl>
 1 2023-08-01 Wynne      96.7 KUTS                  105
 2 2023-08-02 Wynne      97.3 KUTS                  105
 3 2023-08-03 Wynne      96.6 KUTS                  102
 4 2023-08-04 Wynne      95.2 KUTS                  102
 5 2023-08-05 Wynne      96.5 KUTS                  103
 6 2023-08-06 Wynne      94.8 KUTS                  102
 7 2023-08-07 Wynne      96.7 KUTS                  102
 8 2023-08-08 Wynne      95.1 KUTS                  102
 9 2023-08-09 Wynne      96.5 KUTS                  104
10 2023-08-10 Wynne      97.5 KUTS                  105
# ℹ 173 more rows

ferguson_merge <- left_join(Ferguson, KUTS, by = "date") |> select(date, unit, unit_temp, station_code, station_temp)

ferguson_merge

# A tibble: 183 × 5
   date       unit     unit_temp station_code station_temp
   <date>     <chr>        <dbl> <chr>               <dbl>
 1 2023-08-01 Ferguson      95.6 KUTS                  105
 2 2023-08-02 Ferguson      93.3 KUTS                  105
 3 2023-08-03 Ferguson      93.7 KUTS                  102
 4 2023-08-04 Ferguson      91.6 KUTS                  102
 5 2023-08-05 Ferguson      95.6 KUTS                  103
 6 2023-08-06 Ferguson      92   KUTS                  102
 7 2023-08-07 Ferguson      93.2 KUTS                  102
 8 2023-08-08 Ferguson      93.9 KUTS                  102
 9 2023-08-09 Ferguson      93.3 KUTS                  104
10 2023-08-10 Ferguson      92.6 KUTS                  105
# ℹ 173 more rows

goodman_merge <- left_join(Goodman, KJAS, by = "date") |> select(date, unit, unit_temp, station_code, station_temp)

goodman_merge

# A tibble: 183 × 5
   date       unit    unit_temp station_code station_temp
   <date>     <chr>       <dbl> <chr>               <dbl>
 1 2023-08-01 Goodman      93   KJAS                  102
 2 2023-08-02 Goodman      96.9 KJAS                  102
 3 2023-08-03 Goodman      88.9 KJAS                   99
 4 2023-08-04 Goodman      93.2 KJAS                  102
 5 2023-08-05 Goodman      94.6 KJAS                  102
 6 2023-08-06 Goodman      92.6 KJAS                  100
 7 2023-08-07 Goodman      92.4 KJAS                  102
 8 2023-08-08 Goodman      95.1 KJAS                  100
 9 2023-08-09 Goodman      90.5 KJAS                  100
10 2023-08-10 Goodman      89.7 KJAS                  102
# ℹ 173 more rows

polunksy_merge <- left_join(Polunsky, KCXO, by = "date") |> select(date, unit, unit_temp, station_code, station_temp)

polunksy_merge

# A tibble: 183 × 5
   date       unit     unit_temp station_code station_temp
   <date>     <chr>        <dbl> <chr>               <dbl>
 1 2023-08-01 Polunsky      96.3 KCXO                  101
 2 2023-08-02 Polunsky      95.5 KCXO                  103
 3 2023-08-03 Polunsky      95.2 KCXO                  102
 4 2023-08-04 Polunsky      93.5 KCXO                   99
 5 2023-08-05 Polunsky      93.3 KCXO                  101
 6 2023-08-06 Polunsky      93.4 KCXO                  100
 7 2023-08-07 Polunsky      93.9 KCXO                  102
 8 2023-08-08 Polunsky      93.8 KCXO                  102
 9 2023-08-09 Polunsky      94.3 KCXO                  101
10 2023-08-10 Polunsky      94.7 KCXO                  103
# ℹ 173 more rows

montford_merge <- left_join(Montford, KLBB, by = "date") |> select(date, unit, unit_temp, station_code, station_temp)

montford_merge

# A tibble: 183 × 5
   date       unit     unit_temp station_code station_temp
   <date>     <chr>        <dbl> <chr>               <dbl>
 1 2023-08-01 Montford      93.3 KLBB                  100
 2 2023-08-02 Montford      90.1 KLBB                   98
 3 2023-08-03 Montford      89.5 KLBB                  100
 4 2023-08-04 Montford      93.7 KLBB                  101
 5 2023-08-05 Montford      93.6 KLBB                  100
 6 2023-08-06 Montford      92.6 KLBB                  102
 7 2023-08-07 Montford      92.4 KLBB                   92
 8 2023-08-08 Montford      90.3 KLBB                   99
 9 2023-08-09 Montford      93.5 KLBB                  100
10 2023-08-10 Montford      96.4 KLBB                   97
# ℹ 173 more rows

hobby_merge <- left_join(Hobby, KPWG, by = "date") |> select(date, unit, unit_temp, station_code, station_temp)

hobby_merge

# A tibble: 183 × 5
   date       unit  unit_temp station_code station_temp
   <date>     <chr>     <dbl> <chr>               <dbl>
 1 2023-08-01 Hobby      95.7 KPWG                  105
 2 2023-08-02 Hobby      96.4 KPWG                  106
 3 2023-08-03 Hobby      93.9 KPWG                  104
 4 2023-08-04 Hobby      93.9 KPWG                  104
 5 2023-08-05 Hobby      94.5 KPWG                  103
 6 2023-08-06 Hobby      94.9 KPWG                  104
 7 2023-08-07 Hobby      93.6 KPWG                  106
 8 2023-08-08 Hobby      93.2 KPWG                  105
 9 2023-08-09 Hobby      93.3 KPWG                  106
10 2023-08-10 Hobby      93.3 KPWG                  107
# ℹ 173 more rows

telford_merge <- left_join(Telford, KTXK, by = "date") |> select(date, unit, unit_temp, station_code, station_temp)

telford_merge

# A tibble: 183 × 5
   date       unit    unit_temp station_code station_temp
   <date>     <chr>       <dbl> <chr>               <dbl>
 1 2023-08-01 Telford      91.8 KTXK                   95
 2 2023-08-02 Telford      94.1 KTXK                  101
 3 2023-08-03 Telford      94.6 KTXK                  100
 4 2023-08-04 Telford      92.9 KTXK                  100
 5 2023-08-05 Telford      94.1 KTXK                  101
 6 2023-08-06 Telford      91.3 KTXK                   95
 7 2023-08-07 Telford      88.8 KTXK                   91
 8 2023-08-08 Telford      84.9 KTXK                   86
 9 2023-08-09 Telford      91.4 KTXK                   97
10 2023-08-10 Telford      92.2 KTXK                   98
# ℹ 173 more rows

powledge_merge <- left_join(Powledge, KPSN, by = "date") |> select(date, unit, unit_temp, station_code, station_temp)

powledge_merge

# A tibble: 183 × 5
   date       unit     unit_temp station_code station_temp
   <date>     <chr>        <dbl> <chr>               <dbl>
 1 2023-08-01 Powledge      96.6 KPSN                  104
 2 2023-08-02 Powledge      92.7 KPSN                  106
 3 2023-08-03 Powledge      93.4 KPSN                  104
 4 2023-08-04 Powledge      95.5 KPSN                  102
 5 2023-08-05 Powledge      94.9 KPSN                  102
 6 2023-08-06 Powledge      93.1 KPSN                  102
 7 2023-08-07 Powledge      94.6 KPSN                  102
 8 2023-08-08 Powledge      93.5 KPSN                  100
 9 2023-08-09 Powledge      93.4 KPSN                  104
10 2023-08-10 Powledge      97.2 KPSN                  104
# ℹ 173 more rows

all_comparison <- bind_rows(ellis_merge, estelle_merge, goree_merge, holliday_merge, huntsville_merge, wynne_merge, goodman_merge, polunksy_merge, montford_merge, telford_merge, hobby_merge, ferguson_merge, powledge_merge)

all_comparison

# A tibble: 2,379 × 5
   date       unit  unit_temp station_code station_temp
   <date>     <chr>     <dbl> <chr>               <dbl>
 1 2023-08-01 Ellis      98.3 KUTS                  105
 2 2023-08-02 Ellis      97.4 KUTS                  105
 3 2023-08-03 Ellis      93   KUTS                  102
 4 2023-08-04 Ellis      92.8 KUTS                  102
 5 2023-08-05 Ellis      91.6 KUTS                  103
 6 2023-08-06 Ellis      95.4 KUTS                  102
 7 2023-08-07 Ellis      94.4 KUTS                  102
 8 2023-08-08 Ellis      91   KUTS                  102
 9 2023-08-09 Ellis      90.8 KUTS                  104
10 2023-08-10 Ellis      95.5 KUTS                  105
# ℹ 2,369 more rows

all_comp_diff <- all_comparison |> mutate(
  temp_diff = abs(station_temp - unit_temp)
)

all_comp_diff |> arrange(temp_diff |> desc())

# A tibble: 2,379 × 6
   date       unit     unit_temp station_code station_temp temp_diff
   <date>     <chr>        <dbl> <chr>               <dbl>     <dbl>
 1 2023-04-06 Hobby         80.4 KPWG                   52      28.4
 2 2023-04-07 Powledge      79.3 KPSN                   52      27.3
 3 2023-04-06 Powledge      78.4 KPSN                   52      26.4
 4 2023-04-06 Telford       77.6 KTXK                   53      24.6
 5 2023-04-07 Hobby         79.3 KPWG                   56      23.3
 6 2023-04-07 Goodman       77   KJAS                   54      23  
 7 2023-04-23 Hobby         76.6 KPWG                   54      22.6
 8 2023-04-07 Wynne         76.3 KUTS                   54      22.3
 9 2023-04-24 Montford      74.8 KLBB                   53      21.8
10 2023-09-08 Goree         86.7 KUTS                  108      21.3
# ℹ 2,369 more rows
…
