heat_test - cleaning
…
Right now each day is a column, let’s change it so days are all under one column and clean up the names of our columns.

We’ll do this individually before we join the columns so we don’t have to remove the 31st rows for months with only 30 days.

other_temps_raw <- other_indoor_temps |> 
  pivot_longer(
    cols = "1":"31",
    names_to = "day",
    values_to = "temperature"
  )

other_temps_raw

# A tibble: 6,293 × 5
   `File Name`                Unit   `Validation Link`         day   temperature
   <chr>                      <chr>  <chr>                     <chr>       <dbl>
 1 SB1R56 - August 2023_1.pdf Allred https://journaliststudio… 1            97.7
 2 SB1R56 - August 2023_1.pdf Allred https://journaliststudio… 2            99.7
 3 SB1R56 - August 2023_1.pdf Allred https://journaliststudio… 3            95.6
 4 SB1R56 - August 2023_1.pdf Allred https://journaliststudio… 4            97.6
 5 SB1R56 - August 2023_1.pdf Allred https://journaliststudio… 5           100. 
 6 SB1R56 - August 2023_1.pdf Allred https://journaliststudio… 6            97.1
 7 SB1R56 - August 2023_1.pdf Allred https://journaliststudio… 7            93.8
 8 SB1R56 - August 2023_1.pdf Allred https://journaliststudio… 8            92.3
 9 SB1R56 - August 2023_1.pdf Allred https://journaliststudio… 9            95.8
10 SB1R56 - August 2023_1.pdf Allred https://journaliststudio… 10           93  
# ℹ 6,283 more rows

indoor_temps_raw <- indoor_temps |> 
  pivot_longer(
    cols = "1":"30",
    names_to = "day",
    values_to = "temperature"
  )

indoor_temps_raw

# A tibble: 6,030 × 5
   `File Name`               Unit   `Validation Link`          day   temperature
   <chr>                     <chr>  <chr>                      <chr>       <dbl>
 1 SB1R56 - April 2023_1.pdf Allred https://journaliststudio.… 1            75.5
 2 SB1R56 - April 2023_1.pdf Allred https://journaliststudio.… 2            79  
 3 SB1R56 - April 2023_1.pdf Allred https://journaliststudio.… 3            78.1
 4 SB1R56 - April 2023_1.pdf Allred https://journaliststudio.… 4            80.5
 5 SB1R56 - April 2023_1.pdf Allred https://journaliststudio.… 5            74.3
 6 SB1R56 - April 2023_1.pdf Allred https://journaliststudio.… 6            74.2
 7 SB1R56 - April 2023_1.pdf Allred https://journaliststudio.… 7            76.1
 8 SB1R56 - April 2023_1.pdf Allred https://journaliststudio.… 8            77.9
 9 SB1R56 - April 2023_1.pdf Allred https://journaliststudio.… 9            79  
10 SB1R56 - April 2023_1.pdf Allred https://journaliststudio.… 10           78.4
# ℹ 6,020 more rows

Combine data frames

Let’s combine both of our datasets to make a single table.

indoor_temps_combined <- bind_rows(other_temps_raw, indoor_temps_raw)

indoor_temps_combined

# A tibble: 12,323 × 5
   `File Name`                Unit   `Validation Link`         day   temperature
   <chr>                      <chr>  <chr>                     <chr>       <dbl>
 1 SB1R56 - August 2023_1.pdf Allred https://journaliststudio… 1            97.7
 2 SB1R56 - August 2023_1.pdf Allred https://journaliststudio… 2            99.7
 3 SB1R56 - August 2023_1.pdf Allred https://journaliststudio… 3            95.6
 4 SB1R56 - August 2023_1.pdf Allred https://journaliststudio… 4            97.6
 5 SB1R56 - August 2023_1.pdf Allred https://journaliststudio… 5           100. 
 6 SB1R56 - August 2023_1.pdf Allred https://journaliststudio… 6            97.1
 7 SB1R56 - August 2023_1.pdf Allred https://journaliststudio… 7            93.8
 8 SB1R56 - August 2023_1.pdf Allred https://journaliststudio… 8            92.3
 9 SB1R56 - August 2023_1.pdf Allred https://journaliststudio… 9            95.8
10 SB1R56 - August 2023_1.pdf Allred https://journaliststudio… 10           93  
# ℹ 12,313 more rows
…
One column we’ll have to convert is our file_name column into a month/year column. In order to do that, we first have to create a value with all of the characters we want to remove.

word_list <- c("SB1R56 - |_1.pdf|_2.pdf")

Now that we’ve done that, let’s clean names and make our new column.

daily_indoor <- indoor_temps_combined|> 
  clean_names() |> 
  mutate(
    month = str_remove_all(file_name, word_list) 
  ) 

daily_indoor

# A tibble: 12,323 × 6
   file_name                  unit   validation_link     day   temperature month
   <chr>                      <chr>  <chr>               <chr>       <dbl> <chr>
 1 SB1R56 - August 2023_1.pdf Allred https://journalist… 1            97.7 Augu…
 2 SB1R56 - August 2023_1.pdf Allred https://journalist… 2            99.7 Augu…
 3 SB1R56 - August 2023_1.pdf Allred https://journalist… 3            95.6 Augu…
 4 SB1R56 - August 2023_1.pdf Allred https://journalist… 4            97.6 Augu…
 5 SB1R56 - August 2023_1.pdf Allred https://journalist… 5           100.  Augu…
 6 SB1R56 - August 2023_1.pdf Allred https://journalist… 6            97.1 Augu…
 7 SB1R56 - August 2023_1.pdf Allred https://journalist… 7            93.8 Augu…
 8 SB1R56 - August 2023_1.pdf Allred https://journalist… 8            92.3 Augu…
 9 SB1R56 - August 2023_1.pdf Allred https://journalist… 9            95.8 Augu…
10 SB1R56 - August 2023_1.pdf Allred https://journalist… 10           93   Augu…
# ℹ 12,313 more rows
…
daily_indoor_dated <- daily_indoor |> 
    unite(
    col = "temp_date", 
    day, month,
    sep = " "
    ) |> 
  mutate(
    date = dmy(temp_date)
  ) |> 
  select(!c(file_name, validation_link, temp_date))

daily_indoor_dated

# A tibble: 12,323 × 3
   unit   temperature date      
   <chr>        <dbl> <date>    
 1 Allred        97.7 2023-08-01
 2 Allred        99.7 2023-08-02
 3 Allred        95.6 2023-08-03
 4 Allred        97.6 2023-08-04
 5 Allred       100.  2023-08-05
 6 Allred        97.1 2023-08-06
 7 Allred        93.8 2023-08-07
 8 Allred        92.3 2023-08-08
 9 Allred        95.8 2023-08-09
10 Allred        93   2023-08-10
# ℹ 12,313 more rows

It looks like the Ramsey unit was recorded with slightly different names in each csv. Let’s combine both of those columns so all of the data is together and then remove any leftover NA’s.

indoor_units_clean <- daily_indoor_dated |> mutate(unit = case_when(
  grepl('ram', unit, ignore.case = TRUE) == TRUE ~ "Ramsey",
  TRUE ~ unit
  ))

indoor_units_clean

# A tibble: 12,323 × 3
   unit   temperature date      
   <chr>        <dbl> <date>    
 1 Allred        97.7 2023-08-01
 2 Allred        99.7 2023-08-02
 3 Allred        95.6 2023-08-03
 4 Allred        97.6 2023-08-04
 5 Allred       100.  2023-08-05
 6 Allred        97.1 2023-08-06
 7 Allred        93.8 2023-08-07
 8 Allred        92.3 2023-08-08
 9 Allred        95.8 2023-08-09
10 Allred        93   2023-08-10
# ℹ 12,313 more rows
…
