heat_test - Comparison
…
Hutchins <- indoor_temps |> 
  filter(unit == "Hutchins")

Joining the data

This set of code chunks will combine each unit with the corresponding station and find the difference in temperature between the two.

Middleton_comp <- left_join(Middleton, KABI_temps, by = "date") |> 
  mutate(difference = abs(temperature - hourly_temp)) |> 
  select(date, unit, temperature, station, hourly_temp, difference)

Middleton_comp

# A tibble: 183 × 6
   date       unit      temperature station hourly_temp difference
   <date>     <chr>           <dbl> <chr>         <dbl>      <dbl>
 1 2023-08-01 Middleton        97.8 KABI            103       5.2 
 2 2023-08-02 Middleton        96   KABI            102       6   
 3 2023-08-03 Middleton        96.2 KABI            104       7.8 
 4 2023-08-04 Middleton        96.5 KABI            104       7.5 
 5 2023-08-05 Middleton        98.1 KABI            106       7.90
 6 2023-08-06 Middleton        98.9 KABI            105       6.10
 7 2023-08-07 Middleton        95.9 KABI            106      10.1 
 8 2023-08-08 Middleton        95.6 KABI            106      10.4 
 9 2023-08-09 Middleton        98.1 KABI            108       9.9 
10 2023-08-10 Middleton        97.4 KABI            108      10.6 
# ℹ 173 more rows

Robertson_comp <- left_join(Robertson, KABI_temps, by = "date") |> 
  mutate(difference = abs(temperature - hourly_temp)) |> 
  select(date, unit, temperature, station, hourly_temp, difference)

Robertson_comp

# A tibble: 183 × 6
   date       unit      temperature station hourly_temp difference
   <date>     <chr>           <dbl> <chr>         <dbl>      <dbl>
 1 2023-08-01 Robertson        95.7 KABI            103       7.3 
 2 2023-08-02 Robertson        94.6 KABI            102       7.40
 3 2023-08-03 Robertson        94.5 KABI            104       9.5 
 4 2023-08-04 Robertson        94.6 KABI            104       9.4 
 5 2023-08-05 Robertson        95.7 KABI            106      10.3 
 6 2023-08-06 Robertson        97.5 KABI            105       7.5 
 7 2023-08-07 Robertson        94   KABI            106      12   
 8 2023-08-08 Robertson        96.6 KABI            106       9.4 
 9 2023-08-09 Robertson        96.6 KABI            108      11.4 
10 2023-08-10 Robertson        96.6 KABI            108      11.4 
# ℹ 173 more rows

Clements_comp <- left_join(Clements, KAMA_temps, by = "date") |> 
    mutate(difference = abs(temperature - hourly_temp)) |> 
  select(date, unit, temperature, station, hourly_temp, difference)

Clements_comp

# A tibble: 183 × 6
   date       unit     temperature station hourly_temp difference
   <date>     <chr>          <dbl> <chr>         <dbl>      <dbl>
 1 2023-08-01 Clements        89.3 KAMA            100      10.7 
 2 2023-08-02 Clements        89   KAMA             99      10   
 3 2023-08-03 Clements        88.8 KAMA             99      10.2 
 4 2023-08-04 Clements        88   KAMA            102      14   
 5 2023-08-05 Clements        89.3 KAMA             85       4.30
 6 2023-08-06 Clements        85.1 KAMA             87       1.90
 7 2023-08-07 Clements        82.5 KAMA             85       2.5 
 8 2023-08-08 Clements        83.5 KAMA             94      10.5 
 9 2023-08-09 Clements        83.9 KAMA             91       7.10
10 2023-08-10 Clements        84   KAMA             96      12   
# ℹ 173 more rows

Gist_comp <- left_join(Gist, KBPT_temps, by = "date") |> 
    mutate(difference = abs(temperature - hourly_temp)) |> 
  select(date, unit, temperature, station, hourly_temp, difference)

Gist_comp

# A tibble: 183 × 6
   date       unit  temperature station hourly_temp difference
   <date>     <chr>       <dbl> <chr>         <dbl>      <dbl>
 1 2023-08-01 Gist         97.5 KBPT            102      4.5  
 2 2023-08-02 Gist         98.4 KBPT            100      1.60 
 3 2023-08-03 Gist         97.3 KBPT             98      0.700
 4 2023-08-04 Gist         97.4 KBPT             98      0.600
 5 2023-08-05 Gist         96.9 KBPT             99      2.10 
 6 2023-08-06 Gist         94.9 KBPT             97      2.10 
 7 2023-08-07 Gist         97.4 KBPT             98      0.600
 8 2023-08-08 Gist         97.7 KBPT             98      0.300
 9 2023-08-09 Gist         97.1 KBPT             96      1.10 
10 2023-08-10 Gist         96.3 KBPT             97      0.700
# ℹ 173 more rows

Stiles_comp <- left_join(Stiles, KBPT_temps, by = "date") |> 
    mutate(difference = abs(temperature - hourly_temp)) |> 
  select(date, unit, temperature, station, hourly_temp, difference)

Stiles_comp

# A tibble: 183 × 6
   date       unit   temperature station hourly_temp difference
   <date>     <chr>        <dbl> <chr>         <dbl>      <dbl>
 1 2023-08-01 Stiles        90.9 KBPT            102      11.1 
 2 2023-08-02 Stiles        91   KBPT            100       9   
 3 2023-08-03 Stiles        91.8 KBPT             98       6.2 
 4 2023-08-04 Stiles        92.3 KBPT             98       5.7 
 5 2023-08-05 Stiles        91.5 KBPT             99       7.5 
 6 2023-08-06 Stiles        91.6 KBPT             97       5.40
 7 2023-08-07 Stiles        91.9 KBPT             98       6.10
 8 2023-08-08 Stiles        91.7 KBPT             98       6.3 
 9 2023-08-09 Stiles        89.4 KBPT             96       6.60
10 2023-08-10 Stiles        90.8 KBPT             97       6.2 
# ℹ 173 more rows

Garza_West_comp <- left_join(Garza_West, KBEA_temps, by = "date") |> 
  mutate(difference = abs(temperature - hourly_temp)) |> 
  select(date, unit, temperature, station, hourly_temp, difference)

Garza_West_comp

# A tibble: 183 × 6
   date       unit       temperature station hourly_temp difference
   <date>     <chr>            <dbl> <chr>         <dbl>      <dbl>
 1 2023-08-01 Garza West        101. KBEA            101      0.300
 2 2023-08-02 Garza West        102. KBEA            100      2.10 
 3 2023-08-03 Garza West        100. KBEA            100      0.300
 4 2023-08-04 Garza West        100. KBEA            100      0.5  
 5 2023-08-05 Garza West        101. KBEA            101      0.300
 6 2023-08-06 Garza West        101. KBEA            100      0.600
 7 2023-08-07 Garza West        102. KBEA            102      0.100
 8 2023-08-08 Garza West        100. KBEA            101      0.700
 9 2023-08-09 Garza West        102  KBEA             99      3    
10 2023-08-10 Garza West        101. KBEA            101      0.300
# ℹ 173 more rows

McConnell_comp <- left_join(McConnell, KBEA_temps, by = "date") |> 
  mutate(difference = abs(temperature - hourly_temp)) |> 
  select(date, unit, temperature, station, hourly_temp, difference)

McConnell_comp

# A tibble: 183 × 6
   date       unit      temperature station hourly_temp difference
   <date>     <chr>           <dbl> <chr>         <dbl>      <dbl>
 1 2023-08-01 Mcconnell        91.4 KBEA            101       9.6 
 2 2023-08-02 Mcconnell        92.2 KBEA            100       7.8 
 3 2023-08-03 Mcconnell        94.2 KBEA            100       5.8 
 4 2023-08-04 Mcconnell        92.3 KBEA            100       7.7 
 5 2023-08-05 Mcconnell        93.8 KBEA            101       7.2 
 6 2023-08-06 Mcconnell        91.9 KBEA            100       8.10
 7 2023-08-07 Mcconnell        94.9 KBEA            102       7.10
 8 2023-08-08 Mcconnell        94.8 KBEA            101       6.2 
 9 2023-08-09 Mcconnell        92.1 KBEA             99       6.90
10 2023-08-10 Mcconnell        94.9 KBEA            101       6.10
# ℹ 173 more rows

Clemens_comp <- left_join(Clemens, KLBX_temps, by = "date") |> 
  mutate(difference = abs(temperature - hourly_temp)) |> 
  select(date, unit, temperature, station, hourly_temp, difference)

Clemens_comp

# A tibble: 183 × 6
   date       unit    temperature station hourly_temp difference
   <date>     <chr>         <dbl> <chr>         <dbl>      <dbl>
 1 2023-08-01 Clemens        84.3 KLBX             99      14.7 
 2 2023-08-02 Clemens        87.4 KLBX             95       7.60
 3 2023-08-03 Clemens        85.6 KLBX             96      10.4 
 4 2023-08-04 Clemens        83   KLBX             97      14   
 5 2023-08-05 Clemens        84.2 KLBX             96      11.8 
 6 2023-08-06 Clemens        87.2 KLBX             95       7.8 
 7 2023-08-07 Clemens        84.9 KLBX             96      11.1 
 8 2023-08-08 Clemens        89.4 KLBX             96       6.60
 9 2023-08-09 Clemens        89.9 KLBX             95       5.10
10 2023-08-10 Clemens        91.7 KLBX             96       4.30
# ℹ 173 more rows

Roach_comp <- left_join(Roach, KCDS_temps, by = "date") |> 
  mutate(difference = abs(temperature - hourly_temp)) |> 
  select(date, unit, temperature, station, hourly_temp, difference)

Roach_comp

# A tibble: 183 × 6
   date       unit  temperature station hourly_temp difference
   <date>     <chr>       <dbl> <chr>         <dbl>      <dbl>
 1 2023-08-01 Roach        92.4 KCDS            103       10.6
 2 2023-08-02 Roach        93.1 KCDS            103        9.9
 3 2023-08-03 Roach        93.7 KCDS            104       10.3
 4 2023-08-04 Roach        93.8 KCDS            104       10.2
 5 2023-08-05 Roach        93.7 KCDS            102        8.3
 6 2023-08-06 Roach        91.3 KCDS             99        7.7
 7 2023-08-07 Roach        88.5 KCDS             91        2.5
 8 2023-08-08 Roach        88.4 KCDS             98        9.6
 9 2023-08-09 Roach        88.3 KCDS             97        8.7
10 2023-08-10 Roach        89.3 KCDS             96        6.7
# ℹ 173 more rows

Wallace_comp <- left_join(Wallace, KSNK_temps, by = "date") |> 
  mutate(difference = abs(temperature - hourly_temp)) |> 
  select(date, unit, temperature, station, hourly_temp, difference)

Wallace_comp

# A tibble: 183 × 6
   date       unit    temperature station hourly_temp difference
   <date>     <chr>         <dbl> <chr>         <dbl>      <dbl>
 1 2023-08-01 Wallace        95.3 KSNK            100       4.7 
 2 2023-08-02 Wallace        90.5 KSNK             98       7.5 
 3 2023-08-03 Wallace        93.9 KSNK            100       6.10
 4 2023-08-04 Wallace        91.8 KSNK            101       9.2 
 5 2023-08-05 Wallace        95.1 KSNK            103       7.90
 6 2023-08-06 Wallace        95.9 KSNK            103       7.10
 7 2023-08-07 Wallace        91.8 KSNK             94       2.20
 8 2023-08-08 Wallace        93.3 KSNK            101       7.7 
 9 2023-08-09 Wallace        91.6 KSNK            105      13.4 
10 2023-08-10 Wallace        95.5 KSNK            104       8.5 
# ℹ 173 more rows

Stevenson_comp <- left_join(Stevenson, KVCT_temps, by = "date") |> 
  mutate(difference = abs(temperature - hourly_temp)) |> 
  select(date, unit, temperature, station, hourly_temp, difference)

Stevenson_comp

# A tibble: 183 × 6
   date       unit      temperature station hourly_temp difference
   <date>     <chr>           <dbl> <chr>         <dbl>      <dbl>
 1 2023-08-01 Stevenson        95.6 KVCT            103      7.40 
 2 2023-08-02 Stevenson        97.8 KVCT            100      2.20 
 3 2023-08-03 Stevenson        97.8 KVCT             99      1.20 
 4 2023-08-04 Stevenson        93.3 KVCT            101      7.7  
 5 2023-08-05 Stevenson        94.5 KVCT             99      4.5  
 6 2023-08-06 Stevenson        95.3 KVCT             99      3.70 
 7 2023-08-07 Stevenson        97   KVCT            101      4    
 8 2023-08-08 Stevenson        91.4 KVCT             99      7.60 
 9 2023-08-09 Stevenson        97.2 KVCT             98      0.800
10 2023-08-10 Stevenson        94.5 KVCT            101      6.5  
# ℹ 173 more rows

Dalhart_comp <- left_join(Dalhart, KDHT_temps, by = "date") |>
  mutate(difference = abs(temperature - hourly_temp)) |> 
  select(date, unit, temperature, station, hourly_temp, difference)

Dalhart_comp

# A tibble: 183 × 6
   date       unit    temperature station hourly_temp difference
   <date>     <chr>         <dbl> <chr>         <dbl>      <dbl>
 1 2023-08-01 Dalhart        86.9 KDHT            100     13.1  
 2 2023-08-02 Dalhart        93.7 KDHT             99      5.3  
 3 2023-08-03 Dalhart        94.2 KDHT             94      0.200
 4 2023-08-04 Dalhart        90   KDHT             93      3    
 5 2023-08-05 Dalhart        89.7 KDHT             97      7.3  
 6 2023-08-06 Dalhart        82.7 KDHT             80      2.70 
 7 2023-08-07 Dalhart        83.9 KDHT             85      1.10 
 8 2023-08-08 Dalhart        77.7 KDHT             92     14.3  
 9 2023-08-09 Dalhart        79.9 KDHT             89      9.1  
10 2023-08-10 Dalhart        88.6 KDHT             96      7.40 
# ℹ 173 more rows

Hutchins_comp <- left_join(Hutchins, KRBD_temps, by = "date") |>
  mutate(difference = abs(temperature - hourly_temp)) |> 
  select(date, unit, temperature, station, hourly_temp, difference)

Hutchins_comp

# A tibble: 183 × 6
   date       unit     temperature station hourly_temp difference
   <date>     <chr>          <dbl> <chr>         <dbl>      <dbl>
 1 2023-08-01 Hutchins        94.4 KRBD            105      10.6 
 2 2023-08-02 Hutchins        94.9 KRBD            106      11.1 
 3 2023-08-03 Hutchins        95   KRBD            102       7   
 4 2023-08-04 Hutchins        94.2 KRBD            103       8.8 
 5 2023-08-05 Hutchins        94.6 KRBD            103       8.40
 6 2023-08-06 Hutchins        93.5 KRBD            102       8.5 
 7 2023-08-07 Hutchins        94.6 KRBD            102       7.40
 8 2023-08-08 Hutchins        94.1 KRBD            101       6.90
 9 2023-08-09 Hutchins        94.5 KRBD            106      11.5 
10 2023-08-10 Hutchins        94.8 KRBD            105      10.2 
# ℹ 173 more rows

#|label: joining all frames

all_comps <- bind_rows(Middleton_comp, Robertson_comp, Clements_comp, Gist_comp, Stiles_comp, Garza_West_comp, McConnell_comp, Clemens_comp, Roach_comp, Wallace_comp, Stevenson_comp, Dalhart_comp, Hutchins_comp) |> 
  rename(unit_temp = temperature, station_code = station, station_temp = hourly_temp, temp_diff = difference)

all_comps

# A tibble: 2,379 × 6
   date       unit      unit_temp station_code station_temp temp_diff
   <date>     <chr>         <dbl> <chr>               <dbl>     <dbl>
 1 2023-08-01 Middleton      97.8 KABI                  103      5.2 
 2 2023-08-02 Middleton      96   KABI                  102      6   
 3 2023-08-03 Middleton      96.2 KABI                  104      7.8 
 4 2023-08-04 Middleton      96.5 KABI                  104      7.5 
 5 2023-08-05 Middleton      98.1 KABI                  106      7.90
 6 2023-08-06 Middleton      98.9 KABI                  105      6.10
 7 2023-08-07 Middleton      95.9 KABI                  106     10.1 
 8 2023-08-08 Middleton      95.6 KABI                  106     10.4 
 9 2023-08-09 Middleton      98.1 KABI                  108      9.9 
10 2023-08-10 Middleton      97.4 KABI                  108     10.6 
# ℹ 2,369 more rows
…
